{
  "author": ".",
  "library": true,
  "iface": "interface.js",
  "configs": {
    "only_auth_from_op_network": true,
    "root_network": [
      127,
      0,
      0,
      1
    ],
    "root_netmask": [
      255,
      255,
      255,
      255
    ],
    "log_on_file": true,
    "log_path": "../",
    "verbose": true,
    "allow_dbg": true
  }
}